times,games,wins,draws,losses
2022-03-05T17:26:32.809711,1500,823,126,551
2022-03-05T17:27:25.078480,3000,1811,241,948
2022-03-05T17:28:21.263984,4500,2829,347,1324
2022-03-05T17:29:15.783899,6000,3851,460,1689
2022-03-05T17:30:09.631125,7500,4872,596,2032
2022-03-05T17:31:03.734462,9000,5911,723,2366
2022-03-05T17:31:56.450598,10500,6991,817,2692
2022-03-05T17:32:49.524511,12000,8075,916,3009
2022-03-05T17:33:42.713283,13500,9197,1017,3286
2022-03-05T17:34:36.132961,15000,10313,1110,3577
2022-03-05T17:35:29.473681,16500,11401,1223,3876
2022-03-05T17:36:21.289677,18000,12499,1317,4184
2022-03-05T17:37:13.392710,19500,13619,1437,4444
2022-03-05T17:38:06.097933,21000,14734,1556,4710
2022-03-05T17:38:58.547484,22500,15839,1675,4986
2022-03-05T17:39:50.175554,24000,17000,1750,5250
2022-03-05T17:40:41.685771,25500,18044,1862,5594
2022-03-05T17:41:32.946938,27000,19114,1961,5925
2022-03-05T17:42:23.858704,28500,20207,2054,6239
2022-03-05T17:43:15.547681,30000,21288,2158,6554
2022-03-05T17:44:06.441223,31500,22428,2236,6836
2022-03-05T17:44:57.838306,33000,23517,2328,7155
2022-03-05T17:45:53.376710,34500,24586,2485,7429
2022-03-05T17:46:48.956230,36000,25641,2635,7724
2022-03-05T17:47:45.242594,37500,26684,2818,7998
2022-03-05T17:48:40.845612,39000,27739,2975,8286
2022-03-05T17:49:36.592270,40500,28813,3132,8555
2022-03-05T17:50:32.394928,42000,29888,3306,8806
2022-03-05T17:51:27.908208,43500,30963,3438,9099
2022-03-05T17:52:24.193024,45000,32042,3606,9352
2022-03-05T17:53:20.512880,46500,33112,3790,9598
2022-03-05T17:54:16.524021,48000,34178,3952,9870
2022-03-05T17:55:12.497608,49500,35232,4126,10142
2022-03-05T17:56:08.823211,51000,36294,4287,10419
2022-03-05T17:57:05.402879,52500,37356,4472,10672
2022-03-05T17:58:01.803941,54000,38436,4644,10920
2022-03-05T17:58:58.031840,55500,39511,4820,11169
2022-03-05T17:59:54.671501,57000,40596,4975,11429
2022-03-05T18:00:52.243776,58500,41688,5128,11684
2022-03-05T18:01:48.044926,60000,42792,5269,11939
2022-03-05T18:02:43.804585,61500,43860,5419,12221
2022-03-05T18:03:39.883848,63000,44957,5561,12482
2022-03-05T18:04:35.432117,64500,46045,5711,12744
2022-03-05T18:05:31.260405,66000,47115,5878,13007
2022-03-05T18:06:27.536964,67500,48232,6036,13232
2022-03-05T18:07:23.878165,69000,49281,6206,13513
2022-03-05T18:08:20.009199,70500,50374,6351,13775
2022-03-05T18:09:15.704938,72000,51478,6486,14036
2022-03-05T18:10:11.776570,73500,52557,6653,14290
2022-03-05T18:11:09.127249,75000,53630,6820,14550
2022-03-05T18:12:06.234651,76500,54728,6957,14815
2022-03-05T18:13:02.329008,78000,55824,7115,15061
2022-03-05T18:14:00.384169,79500,56910,7257,15333
2022-03-05T18:14:56.704610,81000,58017,7413,15570
2022-03-05T18:15:53.003080,82500,59117,7570,15813
2022-03-05T18:16:48.940084,84000,60245,7703,16052
2022-03-05T18:17:44.844471,85500,61312,7861,16327
2022-03-05T18:18:41.343851,87000,62344,8039,16617
2022-03-05T18:19:37.033070,88500,63345,8189,16966
2022-03-05T18:20:32.412449,90000,64398,8327,17275
2022-03-05T18:21:28.109743,91500,65432,8486,17582
2022-03-05T18:22:23.456207,93000,66470,8607,17923
2022-03-05T18:23:19.658118,94500,67494,8748,18258
2022-03-05T18:24:15.487475,96000,68525,8904,18571
2022-03-05T18:25:10.721500,97500,69608,9022,18870
2022-03-05T18:26:06.649396,99000,70643,9167,19190
2022-03-05T18:27:02.951745,100500,71679,9322,19499
2022-03-05T18:27:58.273739,102000,72724,9466,19810
2022-03-05T18:28:53.253250,103500,73795,9607,20098
2022-03-05T18:29:48.707827,105000,74893,9732,20375
2022-03-05T18:30:44.892475,106500,75958,9883,20659
2022-03-05T18:31:41.204860,108000,76985,10082,20933
2022-03-05T18:32:36.961703,109500,78015,10249,21236
2022-03-05T18:33:32.895392,111000,79100,10399,21501
2022-03-05T18:34:29.163477,112500,80143,10575,21782
2022-03-05T18:35:24.543072,114000,81214,10715,22071
2022-03-05T18:36:20.245921,115500,82243,10890,22367
2022-03-05T18:37:15.988855,117000,83287,11053,22660
2022-03-05T18:38:11.405355,118500,84352,11215,22933
2022-03-05T18:39:07.135518,120000,85388,11391,23221
2022-03-05T18:40:02.886151,121500,86454,11540,23506
2022-03-05T18:40:58.585505,123000,87492,11711,23797
2022-03-05T18:41:54.703285,124500,88517,11905,24078
2022-03-05T18:42:50.766698,126000,89560,12085,24355
2022-03-05T18:43:47.043241,127500,90620,12250,24630
2022-03-05T18:44:42.394418,129000,91679,12413,24908
2022-03-05T18:45:38.452442,130500,92737,12583,25180
2022-03-05T18:46:35.329252,132000,93813,12749,25438
2022-03-05T18:47:33.490288,133500,94891,12903,25706
2022-03-05T18:48:29.706131,135000,95969,13050,25981
2022-03-05T18:49:26.012224,136500,97038,13216,26246
2022-03-05T18:50:22.605124,138000,98081,13375,26544
2022-03-05T18:51:18.103197,139500,99141,13548,26811
2022-03-05T18:52:14.086649,141000,100204,13701,27095
2022-03-05T18:53:11.530327,142500,101268,13869,27363
2022-03-05T18:54:07.455417,144000,102321,14023,27656
2022-03-05T18:55:03.611201,145500,103386,14187,27927
2022-03-05T18:55:59.536042,147000,104469,14335,28196
2022-03-05T18:56:55.301177,148500,105511,14494,28495
2022-03-05T18:57:51.516362,150000,106567,14660,28773
