times,games,wins,draws,losses
2022-03-02T01:33:13.997897,1000,789,1,210
2022-03-02T01:33:25.256085,2000,1646,1,353
2022-03-02T01:33:36.600991,3000,2503,1,496
2022-03-02T01:33:49.564456,4000,3334,4,662
2022-03-02T01:34:02.651874,5000,4188,6,806
2022-03-02T01:34:13.939497,6000,5044,6,950
2022-03-02T01:34:27.111006,7000,5913,6,1081
2022-03-02T01:34:39.716468,8000,6808,6,1186
2022-03-02T01:34:53.090640,9000,7709,6,1285
2022-03-02T01:35:05.737108,10000,8588,6,1406
2022-03-02T01:35:17.811149,11000,9456,6,1538
2022-03-02T01:35:29.013880,12000,10309,6,1685
2022-03-02T01:35:40.940643,13000,11165,6,1829
2022-03-02T01:35:52.103780,14000,12056,6,1938
2022-03-02T01:36:03.335228,15000,12930,6,2064
2022-03-02T01:36:14.611142,16000,13801,7,2192
2022-03-02T01:36:26.473568,17000,14681,8,2311
2022-03-02T01:36:37.807497,18000,15566,9,2425
2022-03-02T01:36:49.375385,19000,16449,9,2542
2022-03-02T01:37:01.118140,20000,17317,9,2674
2022-03-02T01:37:12.641195,21000,18212,9,2779
2022-03-02T01:37:24.159839,22000,19112,9,2879
2022-03-02T01:37:35.728894,23000,20002,9,2989
2022-03-02T01:37:47.416870,24000,20923,9,3068
2022-03-02T01:37:59.137924,25000,21782,9,3209
2022-03-02T01:38:11.120677,26000,22680,9,3311
2022-03-02T01:38:22.438417,27000,23565,9,3426
2022-03-02T01:38:33.739951,28000,24483,9,3508
2022-03-02T01:38:45.438677,29000,25385,10,3605
2022-03-02T01:38:57.288742,30000,26287,10,3703
2022-03-02T01:39:09.189335,31000,27205,10,3785
2022-03-02T01:39:21.105734,32000,28115,10,3875
2022-03-02T01:39:33.418756,33000,28991,10,3999
2022-03-02T01:39:45.807757,34000,29887,11,4102
2022-03-02T01:39:57.852017,35000,30775,11,4214
2022-03-02T01:40:09.754048,36000,31663,11,4326
2022-03-02T01:40:21.126284,37000,32564,11,4425
2022-03-02T01:40:32.473613,38000,33478,12,4510
2022-03-02T01:40:43.564909,39000,34411,13,4576
2022-03-02T01:40:54.507763,40000,35324,13,4663
2022-03-02T01:41:05.497875,41000,36257,13,4730
2022-03-02T01:41:16.445813,42000,37177,13,4810
2022-03-02T01:41:27.528470,43000,38101,14,4885
2022-03-02T01:41:38.650576,44000,39009,14,4977
2022-03-02T01:41:49.880635,45000,39938,15,5047
2022-03-02T01:42:00.703756,46000,40857,16,5127
2022-03-02T01:42:11.590724,47000,41780,16,5204
2022-03-02T01:42:22.584656,48000,42687,16,5297
2022-03-02T01:42:33.766829,49000,43584,16,5400
2022-03-02T01:42:44.857549,50000,44501,16,5483
2022-03-02T01:42:56.120962,51000,45423,16,5561
2022-03-02T01:43:07.808594,52000,46327,17,5656
2022-03-02T01:43:18.873495,53000,47248,17,5735
2022-03-02T01:43:30.471408,54000,48158,17,5825
2022-03-02T01:43:41.616480,55000,49072,17,5911
2022-03-02T01:43:52.848087,56000,50006,17,5977
2022-03-02T01:44:03.883849,57000,50919,17,6064
2022-03-02T01:44:14.759690,58000,51834,17,6149
2022-03-02T01:44:25.716034,59000,52751,17,6232
2022-03-02T01:44:36.708352,60000,53674,17,6309
2022-03-02T01:44:47.796474,61000,54585,18,6397
2022-03-02T01:44:58.869355,62000,55522,18,6460
2022-03-02T01:45:10.250641,63000,56428,18,6554
2022-03-02T01:45:21.818137,64000,57323,18,6659
2022-03-02T01:45:33.008735,65000,58247,19,6734
2022-03-02T01:45:43.871354,66000,59167,19,6814
2022-03-02T01:45:54.857357,67000,60104,19,6877
2022-03-02T01:46:06.062493,68000,61021,19,6960
2022-03-02T01:46:17.306689,69000,61913,19,7068
2022-03-02T01:46:28.855597,70000,62808,19,7173
2022-03-02T01:46:40.190569,71000,63730,19,7251
2022-03-02T01:46:51.948474,72000,64627,19,7354
2022-03-02T01:47:03.918134,73000,65556,19,7425
2022-03-02T01:47:15.299009,74000,66470,19,7511
2022-03-02T01:47:26.557914,75000,67401,19,7580
2022-03-02T01:47:37.506345,76000,68324,19,7657
2022-03-02T01:47:48.553199,77000,69245,19,7736
2022-03-02T01:47:59.712098,78000,70180,19,7801
2022-03-02T01:48:10.800669,79000,71094,19,7887
2022-03-02T01:48:21.912145,80000,72016,19,7965
2022-03-02T01:48:33.150922,81000,72926,20,8054
2022-03-02T01:48:44.500219,82000,73841,21,8138
2022-03-02T01:48:55.820374,83000,74756,21,8223
2022-03-02T01:49:07.905799,84000,75661,21,8318
2022-03-02T01:49:19.030873,85000,76585,21,8394
2022-03-02T01:49:30.200579,86000,77507,21,8472
2022-03-02T01:49:41.440873,87000,78427,21,8552
2022-03-02T01:49:52.290972,88000,79341,21,8638
2022-03-02T01:50:03.247007,89000,80259,21,8720
2022-03-02T01:50:14.223329,90000,81189,21,8790
2022-03-02T01:50:25.580726,91000,82098,21,8881
2022-03-02T01:50:37.011953,92000,83009,21,8970
2022-03-02T01:50:48.435180,93000,83938,21,9041
2022-03-02T01:50:59.881130,94000,84846,21,9133
2022-03-02T01:51:11.330589,95000,85763,21,9216
2022-03-02T01:51:22.942493,96000,86663,21,9316
2022-03-02T01:51:34.067091,97000,87573,21,9406
2022-03-02T01:51:45.299615,98000,88488,21,9491
2022-03-02T01:51:56.308216,99000,89419,23,9558
2022-03-02T01:52:06.945026,100000,90347,24,9629
